## Interface: 11302
## Version: 1.2.1
## Title: Vendor Price
## Notes: Displays the price of an item when not at a vendor
## Author: Ketho, Icesythe7
## X-Curse-Project-ID: 322091
## X-WoWI-ID: 24922

VendorPrice.lua
