﻿## Interface: 11302
## Author: Lag
## Version: v1.1.6-beta
## Dependencies: AtlasLootClassic
## LoadOnDemand: 1

## Title: AtlasLoot Classic |cFF22B14C[Options]|r
## Title-deDE: AtlasLoot Classic |cFF22B14C[Optionen]|r
## Title-esES: AtlasLoot Classic |cFF22B14C[Options]|r
## Title-esMX: AtlasLoot Classic |cFF22B14C[Options]|r
## Title-frFR: AtlasLoot Classic |cFF22B14C[Options]|r
## Title-itIT: AtlasLoot Classic |cFF22B14C[Options]|r
## Title-koKR: AtlasLoot Classic |cFF22B14C[Options]|r
## Title-ptBR: AtlasLoot Classic |cFF22B14C[Options]|r
## Title-ruRU: AtlasLoot Classic |cFF22B14C[Настройки]|r
## Title-zhCN: AtlasLoot Classic |cFF22B14C[Options]|r
## Title-zhTW: AtlasLoot Classic |cFF22B14C[Options]|r
## Notes: AtlasLoot options module
## Notes-deDE: AtlasLoot Optionen
## Notes-esES: AtlasLoot options module
## Notes-esMX: AtlasLoot options module
## Notes-frFR: AtlasLoot options module
## Notes-itIT: AtlasLoot options module
## Notes-koKR: AtlasLoot options module
## Notes-ptBR: AtlasLoot options module
## Notes-ruRU: Опциональный модуль AtlasLoot
## Notes-zhCN: AtlasLoo t选项模块
## Notes-zhTW: AtlasLoot options module

## X-Category: Map
## X-License: GPL v2

## X-AtlasLoot-LootModule: 0

embeds.xml

Locales\constants.cn.lua
Locales\constants.de.lua
Locales\constants.es.lua
Locales\constants.fr.lua
Locales\constants.it.lua
Locales\constants.kr.lua
Locales\constants.mx.lua
Locales\constants.pt.lua
Locales\constants.ru.lua
Locales\constants.tw.lua

Core.lua
Main.lua
Windows.lua
MiniMapButton.lua
Addons.lua